<?xml version="1.0" encoding="UTF-8" standalone="no"?>
<!-- Created with Inkscape (http://www.inkscape.org/) -->

<svg
   xmlns:dc="http://purl.org/dc/elements/1.1/"
   xmlns:cc="http://creativecommons.org/ns#"
   xmlns:rdf="http://www.w3.org/1999/02/22-rdf-syntax-ns#"
   xmlns:svg="http://www.w3.org/2000/svg"
   xmlns="http://www.w3.org/2000/svg"
   xmlns:sodipodi="http://sodipodi.sourceforge.net/DTD/sodipodi-0.dtd"
   xmlns:inkscape="http://www.inkscape.org/namespaces/inkscape"
   width="744.09448819"
   height="1052.3622047"
   id="svg2"
   version="1.1"
   inkscape:version="0.48.3.1 r9886"
   sodipodi:docname="pycontw2013_logo.svg">
  <defs
     id="defs4" />
  <sodipodi:namedview
     id="base"
     pagecolor="#ffffff"
     bordercolor="#666666"
     borderopacity="1.0"
     inkscape:pageopacity="0.0"
     inkscape:pageshadow="2"
     inkscape:zoom="0.98994949"
     inkscape:cx="452.43313"
     inkscape:cy="416.27628"
     inkscape:document-units="px"
     inkscape:current-layer="layer1"
     showgrid="true"
     inkscape:snap-grids="true"
     inkscape:snap-to-guides="false"
     inkscape:window-width="1313"
     inkscape:window-height="744"
     inkscape:window-x="53"
     inkscape:window-y="24"
     inkscape:window-maximized="1">
    <inkscape:grid
       type="xygrid"
       id="grid3092" />
  </sodipodi:namedview>
  <metadata
     id="metadata7">
    <rdf:RDF>
      <cc:Work
         rdf:about="">
        <dc:format>image/svg+xml</dc:format>
        <dc:type
           rdf:resource="http://purl.org/dc/dcmitype/StillImage" />
        <dc:title></dc:title>
      </cc:Work>
    </rdf:RDF>
  </metadata>
  <g
     inkscape:label="Layer 1"
     inkscape:groupmode="layer"
     id="layer1">
    <g
       transform="matrix(6.1877457,0,0,-6.1877457,107.60961,615.6862)"
       id="g46" />
    <g
       transform="matrix(6.1877457,0,0,-6.1877457,76.472878,546.32157)"
       id="g78" />
    <g
       id="g3115"
       inkscape:export-filename="/home/peter/Dropbox/PyCon2013(Local)/pycontw_logo/text4195-2.png"
       inkscape:export-xdpi="200"
       inkscape:export-ydpi="200">
      <path
         inkscape:connector-curvature="0"
         id="path72"
         d="m 76.472878,449.06857 -26.29792,18.71793 c -0.928161,0.6559 -1.850136,1.23755 -2.320404,2.3204 -0.674465,1.54075 0.210136,3.36614 0.773468,4.7955 l 5.723665,14.38651 c 0.408391,1.05192 0.637338,1.9182 1.856323,2.16571 1.942953,0.39602 3.632207,-1.28705 5.104891,-2.3204 l 15.159977,-10.67386 15.159977,10.67386 c 1.472683,1.03335 3.161938,2.71642 5.10489,2.3204 1.225174,-0.24751 1.441497,-1.11379 1.856324,-2.16571 l 5.723661,-14.38651 c 0.55715,-1.42936 1.44794,-3.25475 0.77347,-4.7955 -0.47027,-1.08285 -1.39224,-1.6645 -2.3204,-2.3204 L 76.472878,449.06857 z"
         style="fill:#2288a1;fill-opacity:1;fill-rule:nonzero;stroke:none" />
      <path
         inkscape:connector-curvature="0"
         id="path4181"
         d="m 76.472878,518.37132 -26.29792,18.56324 c -0.928161,0.66208 -1.850136,1.39224 -2.320404,2.47509 -0.674465,1.54075 0.210136,3.37233 0.773468,4.79551 l 5.723665,14.38651 c 0.408391,1.05191 0.637338,1.9182 1.856323,2.16571 1.942953,0.39601 3.632207,-1.28087 5.104891,-2.32041 l 15.159977,-10.67386 15.159977,10.67386 c 1.472683,1.03954 3.161938,2.71642 5.10489,2.32041 1.225174,-0.24751 1.441497,-1.1138 1.856324,-2.16571 l 5.723661,-14.38651 c 0.55715,-1.42318 1.44794,-3.25476 0.77347,-4.79551 -0.47027,-1.08285 -1.39224,-1.81301 -2.3204,-2.47509 -7.864182,-5.57789 -17.449644,-12.28713 -26.297922,-18.56324 z"
         style="fill:#2288a1;fill-opacity:1;fill-rule:nonzero;stroke:none" />
      <path
         sodipodi:nodetypes="ccccccccccccccc"
         style="fill:#2288a1;fill-opacity:1;fill-rule:nonzero;stroke:none"
         d="m 98.97771,554.81071 -22.504832,-36.48914 0,14.59071 0,-14.59071 -22.504831,36.48914 -8.631905,32.87549 c -0.538334,2.05433 -1.577875,4.41805 -1.200423,6.4662 0.816782,4.46136 3.489889,6.39812 7.344854,8.22351 l 18.235287,8.65666 c 1.800634,0.85391 3.359946,1.72019 5.278147,2.20283 3.130999,0.77347 5.500906,-0.9096 8.211139,-2.19046 l 18.260034,-8.66903 c 3.85497,-1.82539 6.52808,-3.76215 7.34486,-8.22351 0.37126,-2.04815 -0.66209,-4.41187 -1.20043,-6.4662 -2.8773,-10.9585 -5.7546,-21.91699 -8.6319,-32.87549 z"
         id="path84"
         inkscape:connector-curvature="0" />
      <path
         inkscape:connector-curvature="0"
         id="path88"
         d="m 76.472878,483.71994 -26.29792,18.71793 c -0.928161,0.64972 -1.850136,1.23755 -2.320404,2.32041 -0.674465,1.54075 0.210136,3.37851 0.773468,4.7955 l 5.723665,14.38651 c 0.408391,1.05192 0.637338,1.9182 1.856323,2.16571 1.942953,0.40196 3.632207,-1.28086 5.104891,-2.3204 l 15.159977,-10.67387 15.159977,10.67387 c 1.472683,1.03954 3.161938,2.72236 5.10489,2.3204 1.225174,-0.24751 1.441497,-1.11379 1.856324,-2.16571 l 5.723661,-14.38651 c 0.55715,-1.41699 1.44794,-3.25475 0.77347,-4.7955 -0.47027,-1.08286 -1.39224,-1.67069 -2.3204,-2.32041 L 79.566751,485.88565 c -1.008603,-0.71778 -2.085271,-1.44793 -3.093873,-2.16571 z"
         style="fill:#e64240;fill-opacity:1;fill-rule:nonzero;stroke:none" />
      <g
         id="g94"
         transform="matrix(6.1877457,0,0,-6.1877457,76.472878,409.41725)">
        <path
           inkscape:connector-curvature="0"
           id="path96"
           transform="matrix(0.8,0,0,-0.8,-6.4,10.44196)"
           d="m 8,13.0625 -6.34375,4.5 C 1.43375,17.71875 1.2075,17.86625 1.09375,18.125 0.9325,18.4975 1.1775,18.93875 1.3125,19.28125 L 2.65625,22.75 C 2.755,23.00375 2.83,23.22125 3.125,23.28125 c 0.46875,0.095 0.86375,-0.31375 1.21875,-0.5625 L 8,20.15625 l 3.65625,2.5625 c 0.355,0.24875 0.74875,0.6575 1.21875,0.5625 0.29375,-0.06 0.37005,-0.2775 0.46875,-0.53125 l 1.34375,-3.46875 c 0.1362,-0.3425 0.38,-0.78375 0.21875,-1.15625 -0.11375,-0.25875 -0.34,-0.40625 -0.5625,-0.5625 L 8,13.0625 z"
           style="fill:#e64240;fill-opacity:1;fill-rule:nonzero;stroke:none" />
      </g>
      <g
         id="g106"
         transform="matrix(6.1877457,0,0,-6.1877457,76.912208,622.2757)">
        <path
           d="M 0,0 -0.406,0"
           style="fill:#3c829d;fill-opacity:1;fill-rule:nonzero;stroke:none"
           id="path108"
           inkscape:connector-curvature="0" />
      </g>
      <g
         id="g114"
         transform="matrix(6.1877457,0,0,-6.1877457,76.912208,622.2757)">
        <path
           d="M 0,0 0.406,0"
           style="fill:#3c829d;fill-opacity:1;fill-rule:nonzero;stroke:none"
           id="path116"
           inkscape:connector-curvature="0" />
      </g>
      <path
         id="path120"
         d="m 76.364816,361.52211 -2.011017,0.30939 0,15.00528 c -2.00483,3.06912 -17.325689,10.909 -17.325689,20.57426 0,9.67144 9.126925,19.3367 9.126925,19.3367 l 10.209781,0 10.364474,0 c 0,0 9.126925,-9.66526 9.126925,-19.3367 0,-9.66526 -15.469364,-17.50514 -17.480382,-20.57426 l 0,-15.00528 -2.011017,-0.30939 z"
         style="fill:#e64240;fill-opacity:1;fill-rule:nonzero;stroke:none"
         inkscape:connector-curvature="0" />
      <g
         id="g126"
         transform="matrix(6.1877457,0,0,-6.1877457,72.169623,397.61746)">
        <path
           d="m 0,0 c -0.11,-0.387 -0.389,-0.64 -0.626,-0.579 -0.347,0.09 -0.406,0.477 -0.295,0.864 0.11,0.387 0.59,0.588 0.745,0.588 C -0.048,0.873 0.111,0.387 0,0"
           style="fill:#ffffff;fill-opacity:1;fill-rule:nonzero;stroke:none"
           id="path128"
           inkscape:connector-curvature="0" />
      </g>
      <g
         id="g130"
         transform="matrix(6.1877457,0,0,-6.1877457,81.321299,397.61746)">
        <path
           d="m 0,0 c 0.11,-0.387 0.389,-0.64 0.626,-0.579 0.347,0.09 0.406,0.477 0.295,0.864 C 0.811,0.672 0.332,0.873 0.176,0.873 0.049,0.873 -0.11,0.387 0,0"
           style="fill:#ffffff;fill-opacity:1;fill-rule:nonzero;stroke:none"
           id="path132"
           inkscape:connector-curvature="0" />
      </g>
      <g
         id="g176"
         transform="matrix(6.1877457,0,0,-6.1877457,78.330143,376.85758)">
        <path
           d="m 0,0 -0.6,0 0,2.281 c 0,0 -1.868,1.771 -1.868,1.839 0,0.068 0.813,-0.411 1.107,-0.586 C -1.085,3.37 -0.809,3.204 -0.533,3.04 -0.469,3.002 -0.41,2.952 -0.339,2.926 -0.247,2.893 -0.186,2.922 -0.105,2.971 0.001,3.034 0.107,3.097 0.214,3.16 0.51,3.337 0.807,3.515 1.103,3.691 1.37,3.85 1.951,4.178 1.951,4.122 1.951,4.066 0,2.189 0,2.189 L 0,0 z"
           style="fill:#e64240;fill-opacity:1;fill-rule:nonzero;stroke:none"
           id="path178"
           inkscape:connector-curvature="0" />
      </g>
    </g>
    <text
       xml:space="preserve"
       style="font-size:93.51298523px;font-style:normal;font-variant:normal;font-weight:normal;font-stretch:normal;text-align:end;line-height:125%;letter-spacing:-2.59812665px;word-spacing:0px;text-anchor:end;fill:#393536;fill-opacity:1;stroke:none;font-family:Liberation Mono;-inkscape-font-specification:Liberation Mono"
       x="323.26321"
       y="502.06961"
       id="text4195"
       sodipodi:linespacing="125%"
       transform="scale(1.1098918,0.90098871)"
       inkscape:export-xdpi="200"
       inkscape:export-ydpi="200"><tspan
         sodipodi:role="line"
         id="tspan4197"
         x="320.6651"
         y="502.06961"
         dx="0"
         style="font-style:normal;font-variant:normal;font-weight:normal;font-stretch:normal;letter-spacing:-2.59812665px;font-family:Ubuntu;-inkscape-font-specification:Ubuntu">2013</tspan></text>
    <text
       xml:space="preserve"
       style="font-size:183.28804016px;font-style:normal;font-weight:normal;text-align:start;line-height:125%;letter-spacing:-15px;word-spacing:0px;text-anchor:start;fill:#2288a1;fill-opacity:1;stroke:none;font-family:Sans"
       x="299.34744"
       y="643.14984"
       id="text3017-3-1"
       sodipodi:linespacing="125%"
       transform="scale(1.0656692,0.9383775)"
       inkscape:export-filename="/home/peter/Dropbox/PyCon2013(Local)/pycontw_logo/text4195-2.png"
       inkscape:export-xdpi="200"
       inkscape:export-ydpi="200"><tspan
         sodipodi:role="line"
         id="tspan3019-7-7"
         x="299.34744"
         y="643.14984"
         style="font-style:normal;font-variant:normal;font-weight:normal;font-stretch:normal;text-align:start;letter-spacing:-15px;text-anchor:start;fill:#2288a1;fill-opacity:1;font-family:Loma;-inkscape-font-specification:Loma">CON</tspan></text>
    <text
       xml:space="preserve"
       style="font-size:183.28804016px;font-style:normal;font-weight:normal;line-height:125%;letter-spacing:-20.10000038px;word-spacing:0px;fill:#e64240;fill-opacity:1;stroke:none;font-family:Sans"
       x="101.19901"
       y="643.14984"
       id="text3017"
       sodipodi:linespacing="125%"
       transform="scale(1.0656692,0.9383775)"
       inkscape:export-filename="/home/peter/Dropbox/PyCon2013(Local)/pycontw_logo/text4195-2.png"
       inkscape:export-xdpi="200"
       inkscape:export-ydpi="200"><tspan
         sodipodi:role="line"
         id="tspan3019"
         x="101.19901"
         y="643.14984"
         style="font-style:normal;font-variant:normal;font-weight:normal;font-stretch:normal;letter-spacing:-20.10000038px;fill:#e64240;fill-opacity:1;font-family:Loma;-inkscape-font-specification:Loma"
         dx="0 -0.029999999">PY</tspan></text>
    <text
       xml:space="preserve"
       style="font-size:93.39922333px;font-style:normal;font-variant:normal;font-weight:normal;font-stretch:normal;text-align:end;line-height:125%;letter-spacing:-2.59496641px;word-spacing:0px;text-anchor:end;fill:#393536;fill-opacity:1;stroke:none;font-family:Liberation Mono;-inkscape-font-specification:Liberation Mono"
       x="625.32074"
       y="503.0582"
       id="text4195-2"
       sodipodi:linespacing="125%"
       transform="scale(1.1112437,0.89989263)"
       inkscape:export-xdpi="200"
       inkscape:export-ydpi="200"><tspan
         sodipodi:role="line"
         id="tspan4197-1"
         x="622.72571"
         y="503.0582"
         style="font-style:normal;font-variant:normal;font-weight:normal;font-stretch:normal;letter-spacing:-2.59496641px;font-family:Ubuntu;-inkscape-font-specification:Ubuntu">Taiwan</tspan></text>
  </g>
</svg>
